{
    "basePath": "http://emplinfo.webcash.co.kr",
    "name": "Employee",
    "protocol": "rest",
    "publicPath": "/gw/ApiGate",
    "version": "2.0",
    "resources": {
        "직원": {
            "methods": {
                "emplinfo01": {
                    "description": "emplinfo01 (직원등록/수정 )",
                    "httpMethod": "POST",
                    "name": "emplinfo01 (직원등록/수정 )",
                    "parameters": {
                        "JSONData": {
                            "default": 
					 {										
					      "SVC_CD"    :   "emplinfo01",                           			
					      "SECR_KEY"  :   "de823041-8789-675d-1b07-4b792f62372d", 			
					      "PTL_STS"   :   "C", 							
					      "REQ_DATA"  : {                                          		
						  "PTL_ID"           :   "PTL_51",          				
						  "CHNL_ID"          :   "CHNL_1",                			
						  "USE_INTT_ID"      :   "UTLZ_160217181229378",       		
						  "BSNN_NO"          :   "",                         			
						  "BSUN_CD"          :   "",                         			
						  "BSNN_NM"          :   "인사급여 프로젝트",         			
						  "CLPH_NO"          :   "01071717171",   				
						  "FLNM"             :   "API테스트2",            			
						  "GNDR"             :   "",               				
						  "EMP_NO"           :   "",     					
						  "DVSN_CD"          :   "",               				
						  "DVSN_NM"          :   "",     					
						  "JBCL_CD"          :   "",               				
						  "JBCL_NM"          :   "",             				
						  "RSPT_CD"          :   "",               				
						  "RSPT_NM"          :   "",             				
						  "EXNM_NO"          :   "",    					
						  "EML"              :   "",       					
						  "BRDT"             :   "",        					
						  "LNR_SLCN"         :   "",               				
						  "WDNG_ANVR"        :   "",        					
						  "WDNG_YN"          :   "",               				
						  "OOTL_NO"          :   "",    					
						  "OOH_ZPCD"         :   "",          					
						  "OOH_POST_ADRS"    :   "", 						
						  "OOH_DTL_ADRS"     :   "",                				
						  "DTPL_ZPCD"        :   "",                    			
						  "DTPL_POST_ADRS"   :   "",                    			
						  "DTPL_DTL_ADRS"    :   "",                    			
						  "PRFL_PHTG"        :   "",						
						  "CLPH_NTNL_CD"     :   "KR_82",					
						  "ADM_USER_ID"      :   "hapumjjup2"  				
					      }                                                 			
					 },
                            "description": "Request parameter : JSONData<br>Request data : {JSON 데이타}",
                            "location": "body",
                            "required": true,
                            "type": "textarea"
                        }
                    }
                },
                "emplinfo02": {
                    "description": "emplinfo02 (사용자정보갱신 )",
                    "httpMethod": "POST",
                    "name": "emplinfo02 (사용자정보갱신 )",
                    "parameters": {
                        "JSONData": {
                            "default":
					 {                                                           
					     "SVC_CD"    :   "emplinfo02",                           
					     "SECR_KEY"  :   "de823041-8789-675d-1b07-4b792f62372d", 
					     "PTL_STS"   :   "C", 
					     "REQ_DATA"  : {                                         
						 "PTL_ID"        :   "PTL_51",                       
						 "USER_ID"       :   "testid_00",                    
						 "USER_IMG_PATH" :   "",                        	 
						 "USER_NM"       :   "testid_00",                    
						 "EML"		 :   "test@webcash.co.kr",          
						 "CLPH_NTNL_CD"  :   "KR_82",                       
						 "CLPH_NO"   	 :   "01071717171"        		 
					      }                                                      
					 } ,
                            "description": "Request parameter : JSONData<br>Request data : {JSON 데이타}",
                            "location": "body",
                            "required": true,
                            "type": "textarea"
                        }
                    }
                },
		"emplinfo03": {
                    "description": "emplinfo03 (직원삭제 )",
                    "httpMethod": "POST",
                    "name": "emplinfo03 (직원삭제 )",
                    "parameters": {
                        "JSONData": {
                            "default":
					 {                                                           
					     "SVC_CD"    :   "emplinfo03",                           
					     "SECR_KEY"  :   "de823041-8789-675d-1b07-4b792f62372d", 
					     "PTL_STS"   :   "C", 
					     "REQ_DATA"  : {                                         
						 "PTL_ID"        :   "PTL_51",                       
						 "CHNL_ID"       :   "CHNL_1",                             
						 "USE_INTT_ID"   :   "UTLZ_4",                      
						 "USER_ID"       :   "testid_00"                     
					      }                                                      
					 },
                            "description": "Request parameter : JSONData<br>Request data : {JSON 데이타}",
                            "location": "body",
                            "required": true,
                            "type": "textarea"
                        }
                    }
		},
		"emplinfo05": {
                    "description": "emplinfo05 (직원조회 )",
                    "httpMethod": "POST",
                    "name": "emplinfo05 (직원조회 )",
                    "parameters": {
                        "JSONData": {
                            "default":
					 {                                                           
					     "SVC_CD"    :   "emplinfo05",                           
					     "SECR_KEY"  :   "de823041-8789-675d-1b07-4b792f62372d", 
					     "PTL_STS"   :   "C", 
					     "REQ_DATA"  : {                                         
						 "PTL_ID"        :   "PTL_51",                       
						 "CHNL_ID"       :   "CHNL_1",                
						 "USE_INTT_ID"   :   "UTLZ_4",         
						 "BSNN_NO"       :   "2148635102",                   
						 "SRCH_WORD"     :   "홍길동",                         
						 "PTL_USER_YN"   :   "",                             
						 "JOIN_YN"	 :   "",                             
						 "PAGE_PER_CNT"  :   "10",                           
						 "PAGE_NO"       :   "1",                             
						 "USER_ID"       :   "",                             
						 "GRP_CD"        :   "",                             
						 "DVSN_CD"       :   ""                             
					      }                                                      
					 } ,
                            "description": "Request parameter : JSONData<br>Request data : {JSON 데이타}",
                            "location": "body",
                            "required": true,
                            "type": "textarea"
                        }
                    }
		},
		"emplinfo07": {
                    "description": "emplinfo07 (직원,연락처조회)",
                    "httpMethod": "POST",
                    "name": "emplinfo07 (직원,연락처조회)",
                    "parameters": {
                        "JSONData": {
                            "default":
					 {                                                           
					     "SVC_CD"    :   "emplinfo07",                           
					     "SECR_KEY"  :   "de823041-8789-675d-1b07-4b792f62372d", 
					     "PTL_STS"   :   "C", 
					     "REQ_DATA"  : {                                         
						 "PTL_ID"        :   "PTL_51",                       
						 "CHNL_ID"       :   "CHNL_1",                
						 "USE_INTT_ID"   :   "UTLZ_4",         
						 "BSNN_NO"       :   "2148635102",                   
						 "INQY_DSNC"     :   "A",                            
						 "SRCH_WORD"     :   "홍길동",                         
						 "PTL_USER_YN"   :   "",                             
						 "USER_ID"       :   "",                             
						 "PAGE_PER_CNT"  :   "10",                           
						 "PAGE_NO"       :   "1",                             
						 "GRP_CD"        :   ""                             
					      }                                                      
					 },
                            "description": "Request parameter : JSONData<br>Request data : {JSON 데이타}",
                            "location": "body",
                            "required": true,
                            "type": "textarea"
                        }
                    }
		},
		"emplinfo09": {
                    "description": "emplinfo09 (나의그룹목록조회)",
                    "httpMethod": "POST",
                    "name": "emplinfo09 (나의그룹목록조회)",
                    "parameters": {
                        "JSONData": {
                            "default":
					 {                                                           
					     "SVC_CD"    :   "emplinfo09",                           
					     "SECR_KEY"  :   "de823041-8789-675d-1b07-4b792f62372d", 
					     "PTL_STS"   :   "C", 
					     "REQ_DATA"  : {                                         
						 "PTL_ID"        :   "PTL_51",                       
						 "CHNL_ID"       :   "CHNL_1",                
						 "USE_INTT_ID"   :   "UTLZ_4",         
						 "USER_ID"       :   "a_test4",                             
						 "INQY_DSNC"     :   "J"                             
					      }                                                      
					 },
                            "description": "Request parameter : JSONData<br>Request data : {JSON 데이타}",
                            "location": "body",
                            "required": true,
                            "type": "textarea"
                        }
		     }
		},
		"emplinfo11": {
                    "description": "emplinfo11 (포탈사용자승인)",
                    "httpMethod": "POST",
                    "name": "emplinfo11 (포탈사용자승인)",
                    "parameters": {
                        "JSONData": {
                            "default":
					 {                                                           
					     "SVC_CD"    :   "emplinfo11",                           
					     "SECR_KEY"  :   "de823041-8789-675d-1b07-4b792f62372d", 
					     "PTL_STS"   :   "C", 
					     "REQ_DATA"  : {                                         
						 "PTL_ID"        :   "PTL_51",                       
						 "CHNL_ID"       :   "CHNL_1",                
						 "USE_INTT_ID"   :   "UTLZ_4",         
						 "USER_ID"       :   "a_test4",                     
						 "FLNM"          :   "홍길동",                        
						 "CLPH_NO"       :   "010-1111-2222",                
						 "EML"           :   "test@webcash.co.kr",           
						 "BSUN_CD"       :   "",                             
						 "BSNN_NO"       :   "2148635102",                   
						 "BSNN_NM"       :   "웹케시",                         
						 "REC"       : [                                     
						   {"BSUN_CD":"", "BSNN_NO":"1234567890", "BSNN_NM":"피트"},  
						   {"BSUN_CD":"", "BSNN_NO":"1234567891", "BSNN_NM":"쿠콘"}  
						 ]                                                  
					      }                                                      
					 },
                            "description": "Request parameter : JSONData<br>Request data : {JSON 데이타}",
                            "location": "body",
                            "required": true,
                            "type": "textarea"
                        }
                    }
		},
		"emplinfo13": {
                    "description": "emplinfo13 (직원동기화 기준시간조회 )",
                    "httpMethod": "POST",
                    "name": "emplinfo13 (직원동기화 기준시간조회 )",
                    "parameters": {
                        "JSONData": {
                            "default":
					 {                                                           
					     "SVC_CD"    :   "emplinfo11",                           
					     "SECR_KEY"  :   "de823041-8789-675d-1b07-4b792f62372d", 
					     "PTL_STS"   :   "C", 
					     "REQ_DATA"  : {                                         
						 "PTL_ID"        :   "PTL_51",                       
						 "CHNL_ID"       :   "CHNL_1",                
						 "USE_INTT_ID"   :   "UTLZ_4",         
						 "USER_ID"       :   "a_test4",                     
						 "FLNM"          :   "홍길동",                        
						 "CLPH_NO"       :   "010-1111-2222",                
						 "EML"           :   "test@webcash.co.kr",           
						 "BSUN_CD"       :   "",                             
						 "BSNN_NO"       :   "2148635102",                   
						 "BSNN_NM"       :   "웹케시",                         
						 "REC"       : [                                     
						   {"BSUN_CD":"", "BSNN_NO":"1234567890", "BSNN_NM":"피트"},  
						   {"BSUN_CD":"", "BSNN_NO":"1234567891", "BSNN_NM":"쿠콘"}  
						 ]                                                  
					      }                                                      
					 },
                            "description": "Request parameter : JSONData<br>Request data : {JSON 데이타}",
                            "location": "body",
                            "required": true,
                            "type": "textarea"
                        }
                    }
		},
		"emplinfo15": {
                    "description": "emplinfo15 (직원동기화)",
                    "httpMethod": "POST",
                    "name": "emplinfo15 (직원동기화)",
                    "parameters": {
                        "JSONData": {
                            "default":
					 {                                                           
					     "SVC_CD"    :   "emplinfo15",                           
					     "SECR_KEY"  :   "de823041-8789-675d-1b07-4b792f62372d", 
					     "PTL_STS"   :   "C", 
					     "REQ_DATA"  : {                                         
						 "PTL_ID"        :   "PTL_51",                       
						 "CHNL_ID"       :   "CHNL_1",                
						 "USE_INTT_ID"   :   "UTLZ_4",         
						 "SNCH_DSNC"     :   "1",         
						 "USER_ID"       :   "",                             
						 "EMPL_SNCH_DTTM"       :   "",                             
						 "ALL_GRP_SNCH_DTTM"    :   "",                             
						 "INDV_GRP_SNCH_DTTM"   :   ""                             
					      }                                                      
					 },
                            "description": "Request parameter : JSONData<br>Request data : {JSON 데이타}",
                            "location": "body",
                            "required": true,
                            "type": "textarea"
                        }
                    }
		},
		"emplinfo17": {
                    "description": "emplinfo17 (직원상세조회)",
                    "httpMethod": "POST",
                    "name": "emplinfo17 (직원상세조회)",
                    "parameters": {
                        "JSONData": {
                            "default":
					 {                                                           
					     "SVC_CD"    :   "emplinfo17",                           
					     "SECR_KEY"  :   "de823041-8789-675d-1b07-4b792f62372d", 
					     "PTL_STS"   :   "C", 
					     "REQ_DATA"  : {                                         
						 "PTL_ID"        :   "PTL_51",                       
						 "CHNL_ID"       :   "CHNL_1",                
						 "USE_INTT_ID"   :   "UTLZ_4",         
						 "USER_ID"       :   ""                             
					      }                                                      
					 },
                            "description": "Request parameter : JSONData<br>Request data : {JSON 데이타}",
                            "location": "body",
                            "required": true,
                            "type": "textarea"
                        }
                    }
		},
		"emplinfo30": {
                    "description": "emplinfo30 (직원탈퇴)",
                    "httpMethod": "POST",
                    "name": "emplinfo30 (직원탈퇴)",
                    "parameters": {
                        "JSONData": {
                            "default":
					 {                                                           
					     "SVC_CD"    :   "emplinfo30",                           
					     "SECR_KEY"  :   "de823041-8789-675d-1b07-4b792f62372d", 
					     "PTL_STS"   :   "C", 
					     "REQ_DATA"  : {                                         
						 "PTL_ID"   	 :   "PTL_51",                      
						 "USE_INTT_ID"   :   "UTLZ_4",                      
						 "USER_ID"       :   "testid_00"                     
					      }                                                      
					 } ,
                            "description": "Request parameter : JSONData<br>Request data : {JSON 데이타}",
                            "location": "body",
                            "required": true,
                            "type": "textarea"
                        }
                    }
		},
		"emplinfo35": {
                    "description": "emplinfo35 (기준정보동기화정보조회)",
                    "httpMethod": "POST",
                    "name": "emplinfo35 (기준정보동기화정보조회)",
                    "parameters": {
                        "JSONData": {
                            "default":
					 {                                                           
					     "SVC_CD"    :   "emplinfo35",                           
					     "SECR_KEY"  :   "de823041-8789-675d-1b07-4b792f62372d", 
					     "PTL_STS"   :   "C", 
					     "PTL_ID"    :   "PTL_51",                       
					     "CHNL_ID"   :   "CHNL_1",                
					     "USE_INTT_ID"   :   "UTLZ_4", 
					     "REQ_DATA"  : {                                        
						 "SNCH_REQ_DTTM"   :   "2017021312312",                 
						 "SNCH_REQ_TRGT"  	:   "U",                     
						 "SNCH_DSNC"  		:   "A"                     
					      }                                                     
					 },
                            "description": "Request parameter : JSONData<br>Request data : {JSON 데이타}",
                            "location": "body",
                            "required": true,
                            "type": "textarea"
                        }
                    }
		},
		"emplinfo37": {
                    "description": "emplinfo37 (참여자팝업(인증키체크))",
                    "httpMethod": "POST",
                    "name": "emplinfo37 (참여자팝업(인증키체크))",
                    "parameters": {
                        "JSONData": {
                            "default":{
					"SVC_CD": "emplinfo37",
					"SECR_KEY": "de823041-8789-675d-1b07-4b792f62372d",
					"PTL_STS": "C",
					"REQ_DATA": {
						"PTL_ID": "",
						"CHNL_ID": "",
						"USE_INTT_ID": "",
						"USER_ID": "",
						"PTL_USER_YN": "",
						"SECR_KEY": ""
					}
				},
                            "description": "Request parameter : JSONData<br>Request data : {JSON 데이타}",
                            "location": "body",
                            "required": true,
                            "type": "textarea"
                        }
                    }
                }
            }
	},
        "부서": {
            "methods": {
                "emplinfo19": {
                    "description": "emplinfo19 (부서조회)",
                    "httpMethod": "POST",
                    "name": "emplinfo19 (부서조회)",
                    "parameters": {
                        "JSONData": {
                            "default":
					 {                                                           
					     "SVC_CD"    :   "emplinfo19",                           
					     "SECR_KEY"  :   "de823041-8789-675d-1b07-4b792f62372d", 
					     "PTL_STS"   :   "C", 
					     "PTL_ID"    :   "PTL_51",                       
					     "CHNL_ID"   :   "CHNL_1",                
					     "USE_INTT_ID"   :   "UTLZ_4", 
					     "REQ_DATA"  : {                                         
						 "PAGE_PER_REQ_CNT"	:   "1000",                       
						 "PAGE_NO"		:   "1"                
					      }                                                      
					 },
                            "description": "Request parameter : JSONData<br>Request data : {JSON 데이타}",
                            "location": "body",
                            "required": true,
                            "type": "textarea"
                        }
                    }
		},
                "emplinfo21": {
                    "description": "emplinfo21 (부서목록조회)",
                    "httpMethod": "POST",
                    "name": "emplinfo21 (부서목록조회)",
                    "parameters": {
                        "JSONData": {
                            "default":
					 {
						"SVC_CD": "dvsn_list_r002",
						"SECR_KEY": "de823041-8789-675d-1b07-4b792f62372d",
						"PTL_STS": "C",
						"REQ_DATA": {
							"REQ_HEAD": [
								{
									"PTL_ID": "",
									"CHNL_ID": "",
									"USE_INTT_ID": "",
									"BSNN_NO": "",
									"USER_ID": "",
									"MNGR_DSNC": "",
									"LNGG_DSNC": "",
									"CNTS_ID": "",
									"AGRM_SRNO": "",
									"PTL_STS": "",
									"CUY_ID": ""
								}
							],
							"ACVT_YN": "",
							"DVSN_CD": "",
							"LRRN_DVSN_INLS_YN": "",
							"BSUN_CD": ""
						}
					},
                            "description": "Request parameter : JSONData<br>Request data : {JSON 데이타}",
                            "location": "body",
                            "required": true,
                            "type": "textarea"
                        }
                    }
		},
                "emplinfo23": {
                    "description": "emplinfo23 (부서정보조회)",
                    "httpMethod": "POST",
                    "name": "emplinfo23 (부서정보조회)",
                    "parameters": {
                        "JSONData": {
                            "default":{
					"SVC_CD": "emplinfo23",
					"SECR_KEY": "de823041-8789-675d-1b07-4b792f62372d",
					"PTL_STS": "C",
					"REQ_DATA": {
						"REQ_HEAD": [
							{
								"PTL_ID": "",
								"CHNL_ID": "",
								"USE_INTT_ID": "",
								"BSNN_NO": "",
								"USER_ID": "",
								"MNGR_DSNC": "",
								"LNGG_DSNC": "",
								"CNTS_ID": "",
								"AGRM_SRNO": "",
								"PTL_STS": "",
								"CUY_ID": ""
							}
						],
						"DVSN_CD": ""
					}
				},
                            "description": "Request parameter : JSONData<br>Request data : {JSON 데이타}",
                            "location": "body",
                            "required": true,
                            "type": "textarea"
                        }
                    }
		},
		"emplinfo25": {
                    "description": "emplinfo25 (부서별직원목록조회)",
                    "httpMethod": "POST",
                    "name": "emplinfo25 (부서별직원목록조회)",
                    "parameters": {
                        "JSONData": {
                            "default":
					 {                                                           
					     "SVC_CD"    :   "emplinfo25",                           
					     "SECR_KEY"  :   "de823041-8789-675d-1b07-4b792f62372d", 
					     "PTL_STS"   :   "C", 
					     "PTL_ID"    :   "PTL_51",                       
					     "CHNL_ID"   :   "CHNL_1",                
					     "USE_INTT_ID"   :   "UTLZ_4", 
					     "REQ_DATA"  : {                                        
						 "DVSN_CD"      	 	:   "10001",                 
						 "LRRN_DVSN_INLS_YN"  	:   "Y",                     
						 "ACVT_YN"  			:   "Y",                     
						 "PAGE_PER_REQ_CNT"	:   "10",                    
						 "PAGE_NO"       		:   "1"                      
					      }                                                     
					 }        ,
                            "description": "Request parameter : JSONData<br>Request data : {JSON 데이타}",
                            "location": "body",
                            "required": true,
                            "type": "textarea"
                        }
                    }
		},
		"emplinfo27": {
                    "description": "emplinfo27 (직원상세조회)",
                    "httpMethod": "POST",
                    "name": "emplinfo27 (직원상세조회)",
                    "parameters": {
                        "JSONData": {
                            "default":{
					"SVC_CD": "emplinfo27",
					"SECR_KEY": "de823041-8789-675d-1b07-4b792f62372d",
					"PTL_STS": "C",
					"REQ_DATA": {
						"REQ_HEAD": [
							{
								"PTL_ID": "",
								"CHNL_ID": "",
								"USE_INTT_ID": "",
								"BSNN_NO": "",
								"USER_ID": "",
								"MNGR_DSNC": "",
								"LNGG_DSNC": "",
								"CNTS_ID": "",
								"AGRM_SRNO": "",
								"PTL_STS": "",
								"CUY_ID": ""
							}
						],
						"SRCH_GB": "",
						"SRCH_WD": "",
						"STTS": "",
						"PAGE_PER_REQ_CNT": "",
						"PAGE_NO": "",
						"USER_DSNC": ""
					}
				},
                            "description": "Request parameter : JSONData<br>Request data : {JSON 데이타}",
                            "location": "body",
                            "required": true,
                            "type": "textarea"
                        }
                    }
		},
		"emplinfo33": {
                    "description": "emplinfo33 (부서목록조회(직원))",
                    "httpMethod": "POST",
                    "name": "emplinfo33 (부서목록조회(직원))",
                    "parameters": {
                        "JSONData": {
                            "default":{
					"SVC_CD": "emplinfo33",
					"SECR_KEY": "de823041-8789-675d-1b07-4b792f62372d",
					"PTL_STS": "C",
					"REQ_DATA": {
						"PTL_ID": "",
						"CHNL_ID": "",
						"USE_INTT_ID": "",
						"PTL_STS": "",
						"USER_ID": "",
						"DVSN_CD": "",
						"ACVT_YN": "",
						"LVL": "",
						"EXCN_YN": "",
						"SRCH_GB": "",
						"PTL_USER_YN": ""
					}
				},
                            "description": "Request parameter : JSONData<br>Request data : {JSON 데이타}",
                            "location": "body",
                            "required": true,
                            "type": "textarea"
                        }
                    }
		},
		"emplinfo45": {
                    "description": "emplinfo45 (부서등록)",
                    "httpMethod": "POST",
                    "name": "emplinfo45 (부서등록)",
                    "parameters": {
                        "JSONData": {
                            "default":
					 {                                                           
					     "SVC_CD"    :   "emplinfo45",                           
					     "SECR_KEY"  :   "de823041-8789-675d-1b07-4b792f62372d", 
					     "REQ_DATA"  : {                                         
							"USER_ID"       :   "a_test4",                     
							"CHNL_ID"  :   "CHNL_1", 
							"PTL_ID"  :   "PTL_51", 
							"USE_INTT_ID"  :   "UTLZ_404889", 
							 "REC"       : [                                     
								{												
									"DVSN_NM"    :   "444",                           
									"OTPT_SQNC"  :   "",                           
									"HGRN_DVSN_CD":  "",                           
									"DVSN_CD"    :   "",                           
									"MNGR_ID"    :   ""                           
								}  
							 ]                                                  
					      }                                                      
					 },
                            "description": "Request parameter : JSONData<br>Request data : {JSON 데이타}",
                            "location": "body",
                            "required": true,
                            "type": "textarea"
                        }
                    }
		},
		"emplinfo46": {
                    "description": "emplinfo46 (부서수정)",
                    "httpMethod": "POST",
                    "name": "emplinfo46 (부서수정)",
                    "parameters": {
                        "JSONData": {
                            "default":
					 {                                                           
					     "SVC_CD"    :   "emplinfo46",                           
					     "SECR_KEY"  :   "de823041-8789-675d-1b07-4b792f62372d", 
					     "REQ_DATA"  : {                                         
						 "CHNL_ID"  :   "CHNL_1", 
						 "PTL_ID"  :   "PTL_51", 
						 "USE_INTT_ID"  :   "UTLZ_404889", 
						 "USER_ID"       :   "a_test4",                     
						 "DVSN_CD"       :   "7",                    		 
						 "DVSN_NM"       :   "444",                     
						 "OTPT_SQNC"     :   "1",             	        
						 "MNGR_ID"       :   "",        		             
						 "HGRN_DVSN_CD"  :   ""      		               
					      }                                                      
					 }        ,
                            "description": "Request parameter : JSONData<br>Request data : {JSON 데이타}",
                            "location": "body",
                            "required": true,
                            "type": "textarea"
                        }
                    }
		},
		"emplinfo47": {
                    "description": "emplinfo47 (부서삭제)",
                    "httpMethod": "POST",
                    "name": "emplinfo47 (부서삭제)",
                    "parameters": {
                        "JSONData": {
                            "default":
					 {                                                           
					     "SVC_CD"    :   "emplinfo47",                           
					     "SECR_KEY"  :   "de823041-8789-675d-1b07-4b792f62372d", 
					     "REQ_DATA"  : {                                         
						 "PTL_ID"     :   "PTL_51",                     
						 "CHNL_ID"    :   "CHNL_1",                     
						 "USE_INTT_ID":   "UTLZ_404889",                     
						 "USER_ID"    :   "a_test4",                     
						 "REC"        : [                                     
								{												
									"DVSN_CD"    :   "7"                           
								}  
							]                                                  
					      }                                                      
					 },
                            "description": "Request parameter : JSONData<br>Request data : {JSON 데이타}",
                            "location": "body",
                            "required": true,
                            "type": "textarea"
                        }
                    }
                }
            }
        },
        "ERP연계": {
            "methods": {
                "emplinfo_erp_cu001": {
                    "description": "emplinfo_erp_cu001 (ERP연계_직원정보 등록/수정)",
                    "httpMethod": "POST",
                    "name": "emplinfo_erp_cu001 (ERP연계_직원정보 등록/수정)",
                    "parameters": {
                        "JSONData": {
                            "default":{
					"SVC_CD": "emplinfo_erp_cu001",
					"SECR_KEY": "de823041-8789-675d-1b07-4b792f62372d",
					"PTL_STS": "C",
					"REQ_DATA": {
						"REC": [
							{
								"TASK_TYPE": "",
								"EMP_NO": "",
								"USE_INTT_ID": "",
								"BSNN_NO": "",
								"FLNM": "",
								"ENG": "",
								"CLPH_NTNL_CD": "",
								"CLPH_NO": "",
								"DVSN_CD": "",
								"DVSN_NM": "",
								"JBCL_NM": "",
								"RSPT_NM": "",
								"USER_ID": "",
								"EML": "",
								"STTS": "",
								"AMNN_DTTM": ""
							}
						]
					}
				},
                            "description": "Request parameter : JSONData<br>Request data : {JSON 데이타}",
                            "location": "body",
                            "required": true,
                            "type": "textarea"
                        }
                    }
		},
                "dvsninfo_erp_cu001": {
                    "description": "dvsninfo_erp_cu001 (ERP연계_부서정보 등록/수정)",
                    "httpMethod": "POST",
                    "name": "dvsninfo_erp_cu001 (ERP연계_부서정보 등록/수정)",
                    "parameters": {
                        "JSONData": {
                            "default":{
					"SVC_CD": "dvsninfo_erp_cu001",
					"SECR_KEY": "de823041-8789-675d-1b07-4b792f62372d",
					"PTL_STS": "C",
					"REQ_DATA": {
						"REC": [
							{
								"TASK_TYPE": "",
								"USE_INTT_ID": "",
								"BSUN_ID": "",
								"DVSN_CD": "",
								"DVSN_NM": "",
								"AMNN_DTTM": "",
								"ACVT_YN": ""
							}
						]
					}
				},
                            "description": "Request parameter : JSONData<br>Request data : {JSON 데이타}",
                            "location": "body",
                            "required": true,
                            "type": "textarea"
                        }
                    }
		}
            }
        }
    }
}
