{
	"basePath": "http://calendar.webcashcorp.com",
	"name": "일정관리 오픈 API",
	"protocol": "rest",
	"publicPath": "/MCalendarGateway",
	"version": "1.0",
	"resources": {
		"test": {
			"methods": {
				"CALENDAR_API_C101": {
					"description": "CALENDAR_API_C101 (일정 등록 )",
					"httpMethod": "POST",
					"name": "CALENDAR_API_C101 (일정 등록 )",
					"parameters": {
						"JSONData": {
							"default": {
								"SVC_CD": "emplinfo01",
								"SECR_KEY": "de823041-8789-675d-1b07-4b792f62372d",
								"PTL_STS": "C",
								"REQ_DATA": {
									"PTL_ID": "PTL_51",
									"CHNL_ID": "CHNL_1",
									"USE_INTT_ID": "UTLZ_160217181229378",
									"BSNN_NO": "",
									"BSUN_CD": "",
									"BSNN_NM": "인사급여 프로젝트",
									"CLPH_NO": "01071717171",
									"FLNM": "API테스트2",
									"GNDR": "",
									"EMP_NO": "",
									"DVSN_CD": "",
									"DVSN_NM": "",
									"JBCL_CD": "",
									"JBCL_NM": "",
									"RSPT_CD": "",
									"RSPT_NM": "",
									"EXNM_NO": "",
									"EML": "",
									"BRDT": "",
									"LNR_SLCN": "",
									"WDNG_ANVR": "",
									"WDNG_YN": "",
									"OOTL_NO": "",
									"OOH_ZPCD": "",
									"OOH_POST_ADRS": "",
									"OOH_DTL_ADRS": "",
									"DTPL_ZPCD": "",
									"DTPL_POST_ADRS": "",
									"DTPL_DTL_ADRS": "",
									"PRFL_PHTG": "",
									"CLPH_NTNL_CD": "KR_82",
									"ADM_USER_ID": "hapumjjup2"
								}
							},
							"description": "Request parameter : JSONData<br>Request data : {JSON 데이타}",
							"location": "query",
							"required": "true",
							"type": "textarea"
						}
					}
				}
			}
		}
	}
}